module gitlab.com/marty-media/server

go 1.21

require (
	github.com/jackc/pgx/v5 v5.7.2
	github.com/sirupsen/logrus v1.9.3
	gitlab.com/martinr92/gohttprouter/v2 v2.0.0
	gitlab.com/martinr92/gomp4 v0.0.0-20241228181543-d88090f5412e
	golang.org/x/sync v0.11.0
)

require (
	github.com/jackc/pgpassfile v1.0.0 // indirect
	github.com/jackc/pgservicefile v0.0.0-20240606120523-5a60cdf6a761 // indirect
	github.com/jackc/puddle/v2 v2.2.2 // indirect
	golang.org/x/crypto v0.31.0 // indirect
	golang.org/x/sys v0.28.0 // indirect
	golang.org/x/text v0.21.0 // indirect
)
